INDEX VERSION 1.134+C:\Users\Muhammad Alifiya\Documents\JAVA-323\java\batch-323\.metadata\.plugins\org.eclipse.jdt.core
3132044609.index
3128629292.index
525561791.index
1865797976.index
751371557.index
1255950791.index
1091429291.index
2958236537.index
1803545605.index
3227420233.index
2309979767.index
853434986.index
1379483662.index
2406272166.index
3271634172.index
2142205930.index
2929877692.index
1051353210.index
1506453178.index
820560053.index
209697162.index
3998987070.index
2765601183.index
3175685703.index
3633599953.index
163638058.index
3928166743.index
1256427144.index
3995583284.index
1410872233.index
2692482206.index
2151744880.index
2887240954.index
738444521.index
3644907041.index
302089944.index
1194180189.index
374586095.index
3674353007.index
356812754.index
78258906.index
2662168872.index
2560404304.index
934059216.index
3325098837.index
2910683268.index
1001119404.index
3471897279.index
381879876.index
3961925443.index
4026417872.index
3193798840.index
1995847659.index
1626666889.index
4203827416.index
2452908709.index
802896601.index
805497056.index
3640166913.index
3311389745.index
2531922905.index
100503114.index
2459255713.index
4294895059.index
214357087.index
1229250553.index
3089657673.index
1110423236.index
2463282175.index
4105617499.index
3644251875.index
2216633016.index
